INDEX VERSION 1.131+D:\ISPL\QATOQE_JAVA_ASSIGNMENT\.metadata\.plugins\org.eclipse.jdt.core
1897928139.index
1878111493.index
3698278747.index
2953298812.index
899518542.index
3498974549.index
1794327708.index
3861206012.index
972666350.index
58444662.index
904289187.index
434535315.index
3517127072.index
1188785453.index
3431489974.index
2590712432.index
3079686767.index
3705452257.index
402782763.index
